…
# Compare performance
collect_metrics(lr_res) %>% filter(.metric=="roc_auc")
```

    ## # A tibble: 1 × 6
    ##   .metric .estimator  mean     n  std_err .config             
    ##   <chr>   <chr>      <dbl> <int>    <dbl> <chr>               
    ## 1 roc_auc binary     0.976     5 0.000936 Preprocessor1_Model1

``` r
collect_metrics(rf_res) %>% filter(.metric=="roc_auc")
```

    ## # A tibble: 25 × 8
    ##     mtry min_n .metric .estimator  mean     n std_err .config              
    ##    <int> <int> <chr>   <chr>      <dbl> <int>   <dbl> <chr>                
    ##  1     1     2 roc_auc binary         1     5       0 Preprocessor1_Model01
    ##  2     2     2 roc_auc binary         1     5       0 Preprocessor1_Model02
    ##  3     3     2 roc_auc binary         1     5       0 Preprocessor1_Model03
    ##  4     4     2 roc_auc binary         1     5       0 Preprocessor1_Model04
    ##  5     6     2 roc_auc binary         1     5       0 Preprocessor1_Model05
    ##  6     1     6 roc_auc binary         1     5       0 Preprocessor1_Model06
    ##  7     2     6 roc_auc binary         1     5       0 Preprocessor1_Model07
    ##  8     3     6 roc_auc binary         1     5       0 Preprocessor1_Model08
    ##  9     4     6 roc_auc binary         1     5       0 Preprocessor1_Model09
    ## 10     6     6 roc_auc binary         1     5       0 Preprocessor1_Model10
    ## # ℹ 15 more rows
…
